col4,col3,col2,col1,col0
,,,,
,,,,
,X,X,X,
X,,,,X
X,,,,X
,,,,
,,,,
X,X,X,X,X
X,,,,X
X,,,,X
X,X,X,X,X
,,,,
X,X,X,X,X
X,,,,X
X,,,,X
X,X,X,X,X
,,,,
X,X,X,X,X
X,,,,
,,,,
,,,,
,,,,
,,,,
,,,,
,,,,
,,,,
,,,,
,,,,
,,,,
,,,,
,,,,
,,,,
,,,,
,,,,
,,,,
,,,,
,,,,
,,,,
